<?xml version="1.0" encoding="UTF-8"?>
<!-- Do not edit this file with editors other than diagrams.net -->
<!DOCTYPE svg PUBLIC "-//W3C//DTD SVG 1.1//EN" "http://www.w3.org/Graphics/SVG/1.1/DTD/svg11.dtd">
<svg xmlns="http://www.w3.org/2000/svg" xmlns:xlink="http://www.w3.org/1999/xlink" version="1.1" width="1px" height="1px" viewBox="-0.5 -0.5 1 1" content="&lt;mxfile host=&quot;app.diagrams.net&quot; modified=&quot;2022-07-06T06:30:41.901Z&quot; agent=&quot;5.0 (X11; Linux x86_64) AppleWebKit/537.36 (KHTML, like Gecko) Chrome/103.0.0.0 Safari/537.36&quot; version=&quot;20.0.4&quot; etag=&quot;UXZx9r5gOnLBFOgjG6i8&quot; type=&quot;gitlab&quot;&gt;&lt;diagram id=&quot;_IvIUKcHrRbXf3ri6qek&quot;&gt;UzV2zq1wL0osyPDNT0nNUTV2VTV2LsrPL4GwciucU3NyVI0MMlNUjV1UjYwMgFjVyA2HrCFY1qAgsSg1rwSLBiADYTaQg2Y1AA==&lt;/diagram&gt;&lt;/mxfile&gt;" resource="https://app.diagrams.net/#Ashmalevoz%2Fbroadcast_locks%2Fmain%2Fwants%2Fprocess.drawio.svg"><defs/><g/></svg>